-- Merging decision tree log ---
manifest
ADDED from /home/fh/Documents/UnityProjects/colorrush/Unity Files/ColoRush/Temp/gradleOut/launcher/src/main/AndroidManifest.xml:3:1-6:12
INJECTED from /home/fh/Documents/UnityProjects/colorrush/Unity Files/ColoRush/Temp/gradleOut/launcher/src/main/AndroidManifest.xml:3:1-6:12
INJECTED from /home/fh/Documents/UnityProjects/colorrush/Unity Files/ColoRush/Temp/gradleOut/launcher/src/main/AndroidManifest.xml:3:1-6:12
INJECTED from /home/fh/Documents/UnityProjects/colorrush/Unity Files/ColoRush/Temp/gradleOut/launcher/src/main/AndroidManifest.xml:3:1-6:12
MERGED from [:unityLibrary] /home/fh/Documents/UnityProjects/colorrush/Unity Files/ColoRush/Temp/gradleOut/unityLibrary/build/intermediates/library_manifest/release/AndroidManifest.xml:2:1-90:12
MERGED from [:simple-android-notifications:] /home/fh/.gradle/caches/transforms-2/files-2.1/a7459096bd020b94d352685408da29b2/AndroidManifest.xml:2:1-12:12
MERGED from [:support-core-utils-25.3.1:] /home/fh/.gradle/caches/transforms-2/files-2.1/1be80f569069a684782221f5848f1fb1/AndroidManifest.xml:17:1-31:12
MERGED from [:unityLibrary:unity-android-resources] /home/fh/Documents/UnityProjects/colorrush/Unity Files/ColoRush/Temp/gradleOut/unityLibrary/unity-android-resources/build/intermediates/library_manifest/release/AndroidManifest.xml:2:1-9:12
INJECTED from /home/fh/Documents/UnityProjects/colorrush/Unity Files/ColoRush/Temp/gradleOut/launcher/src/main/AndroidManifest.xml:3:1-6:12
INJECTED from /home/fh/Documents/UnityProjects/colorrush/Unity Files/ColoRush/Temp/gradleOut/launcher/src/main/AndroidManifest.xml:3:1-6:12
INJECTED from /home/fh/Documents/UnityProjects/colorrush/Unity Files/ColoRush/Temp/gradleOut/launcher/src/main/AndroidManifest.xml:3:1-6:12
	package
		ADDED from /home/fh/Documents/UnityProjects/colorrush/Unity Files/ColoRush/Temp/gradleOut/launcher/src/main/AndroidManifest.xml:3:70-96
		INJECTED from /home/fh/Documents/UnityProjects/colorrush/Unity Files/ColoRush/Temp/gradleOut/launcher/src/main/AndroidManifest.xml
		INJECTED from /home/fh/Documents/UnityProjects/colorrush/Unity Files/ColoRush/Temp/gradleOut/launcher/src/main/AndroidManifest.xml
	android:versionName
		INJECTED from /home/fh/Documents/UnityProjects/colorrush/Unity Files/ColoRush/Temp/gradleOut/launcher/src/main/AndroidManifest.xml
		ADDED from /home/fh/Documents/UnityProjects/colorrush/Unity Files/ColoRush/Temp/gradleOut/launcher/src/main/AndroidManifest.xml:3:1-6:12
		INJECTED from /home/fh/Documents/UnityProjects/colorrush/Unity Files/ColoRush/Temp/gradleOut/launcher/src/main/AndroidManifest.xml
	xmlns:tools
		ADDED from /home/fh/Documents/UnityProjects/colorrush/Unity Files/ColoRush/Temp/gradleOut/launcher/src/main/AndroidManifest.xml:3:97-143
	android:versionCode
		INJECTED from /home/fh/Documents/UnityProjects/colorrush/Unity Files/ColoRush/Temp/gradleOut/launcher/src/main/AndroidManifest.xml
		ADDED from /home/fh/Documents/UnityProjects/colorrush/Unity Files/ColoRush/Temp/gradleOut/launcher/src/main/AndroidManifest.xml:3:1-6:12
		INJECTED from /home/fh/Documents/UnityProjects/colorrush/Unity Files/ColoRush/Temp/gradleOut/launcher/src/main/AndroidManifest.xml
	xmlns:android
		ADDED from /home/fh/Documents/UnityProjects/colorrush/Unity Files/ColoRush/Temp/gradleOut/launcher/src/main/AndroidManifest.xml:3:11-69
	android:installLocation
		ADDED from /home/fh/Documents/UnityProjects/colorrush/Unity Files/ColoRush/Temp/gradleOut/launcher/src/main/AndroidManifest.xml:3:144-184
supports-screens
ADDED from /home/fh/Documents/UnityProjects/colorrush/Unity Files/ColoRush/Temp/gradleOut/launcher/src/main/AndroidManifest.xml:4:3-163
MERGED from [:unityLibrary] /home/fh/Documents/UnityProjects/colorrush/Unity Files/ColoRush/Temp/gradleOut/unityLibrary/build/intermediates/library_manifest/release/AndroidManifest.xml:13:5-18:40
MERGED from [:unityLibrary] /home/fh/Documents/UnityProjects/colorrush/Unity Files/ColoRush/Temp/gradleOut/unityLibrary/build/intermediates/library_manifest/release/AndroidManifest.xml:13:5-18:40
	android:largeScreens
		ADDED from /home/fh/Documents/UnityProjects/colorrush/Unity Files/ColoRush/Temp/gradleOut/launcher/src/main/AndroidManifest.xml:4:78-105
	android:smallScreens
		ADDED from /home/fh/Documents/UnityProjects/colorrush/Unity Files/ColoRush/Temp/gradleOut/launcher/src/main/AndroidManifest.xml:4:21-48
	android:normalScreens
		ADDED from /home/fh/Documents/UnityProjects/colorrush/Unity Files/ColoRush/Temp/gradleOut/launcher/src/main/AndroidManifest.xml:4:49-77
	android:xlargeScreens
		ADDED from /home/fh/Documents/UnityProjects/colorrush/Unity Files/ColoRush/Temp/gradleOut/launcher/src/main/AndroidManifest.xml:4:106-134
	android:anyDensity
		ADDED from /home/fh/Documents/UnityProjects/colorrush/Unity Files/ColoRush/Temp/gradleOut/launcher/src/main/AndroidManifest.xml:4:135-160
application
ADDED from /home/fh/Documents/UnityProjects/colorrush/Unity Files/ColoRush/Temp/gradleOut/launcher/src/main/AndroidManifest.xml:5:3-83
MERGED from [:unityLibrary] /home/fh/Documents/UnityProjects/colorrush/Unity Files/ColoRush/Temp/gradleOut/unityLibrary/build/intermediates/library_manifest/release/AndroidManifest.xml:40:5-88:19
MERGED from [:unityLibrary] /home/fh/Documents/UnityProjects/colorrush/Unity Files/ColoRush/Temp/gradleOut/unityLibrary/build/intermediates/library_manifest/release/AndroidManifest.xml:40:5-88:19
MERGED from [:simple-android-notifications:] /home/fh/.gradle/caches/transforms-2/files-2.1/a7459096bd020b94d352685408da29b2/AndroidManifest.xml:9:5-11:19
MERGED from [:simple-android-notifications:] /home/fh/.gradle/caches/transforms-2/files-2.1/a7459096bd020b94d352685408da29b2/AndroidManifest.xml:9:5-11:19
MERGED from [:support-core-utils-25.3.1:] /home/fh/.gradle/caches/transforms-2/files-2.1/1be80f569069a684782221f5848f1fb1/AndroidManifest.xml:29:5-20
MERGED from [:support-core-utils-25.3.1:] /home/fh/.gradle/caches/transforms-2/files-2.1/1be80f569069a684782221f5848f1fb1/AndroidManifest.xml:29:5-20
	android:label
		ADDED from /home/fh/Documents/UnityProjects/colorrush/Unity Files/ColoRush/Temp/gradleOut/launcher/src/main/AndroidManifest.xml:5:16-48
	android:largeHeap
		ADDED from [:simple-android-notifications:] /home/fh/.gradle/caches/transforms-2/files-2.1/a7459096bd020b94d352685408da29b2/AndroidManifest.xml:9:18-42
	android:icon
		ADDED from /home/fh/Documents/UnityProjects/colorrush/Unity Files/ColoRush/Temp/gradleOut/launcher/src/main/AndroidManifest.xml:5:49-80
	android:theme
		ADDED from [:unityLibrary] /home/fh/Documents/UnityProjects/colorrush/Unity Files/ColoRush/Temp/gradleOut/unityLibrary/build/intermediates/library_manifest/release/AndroidManifest.xml:44:9-50
	android:isGame
		ADDED from [:unityLibrary] /home/fh/Documents/UnityProjects/colorrush/Unity Files/ColoRush/Temp/gradleOut/unityLibrary/build/intermediates/library_manifest/release/AndroidManifest.xml:42:9-30
uses-sdk
INJECTED from /home/fh/Documents/UnityProjects/colorrush/Unity Files/ColoRush/Temp/gradleOut/launcher/src/main/AndroidManifest.xml reason: use-sdk injection requested
INJECTED from /home/fh/Documents/UnityProjects/colorrush/Unity Files/ColoRush/Temp/gradleOut/launcher/src/main/AndroidManifest.xml
INJECTED from /home/fh/Documents/UnityProjects/colorrush/Unity Files/ColoRush/Temp/gradleOut/launcher/src/main/AndroidManifest.xml
MERGED from [:unityLibrary] /home/fh/Documents/UnityProjects/colorrush/Unity Files/ColoRush/Temp/gradleOut/unityLibrary/build/intermediates/library_manifest/release/AndroidManifest.xml:9:5-11:41
MERGED from [:unityLibrary] /home/fh/Documents/UnityProjects/colorrush/Unity Files/ColoRush/Temp/gradleOut/unityLibrary/build/intermediates/library_manifest/release/AndroidManifest.xml:9:5-11:41
MERGED from [:simple-android-notifications:] /home/fh/.gradle/caches/transforms-2/files-2.1/a7459096bd020b94d352685408da29b2/AndroidManifest.xml:8:2-41
MERGED from [:simple-android-notifications:] /home/fh/.gradle/caches/transforms-2/files-2.1/a7459096bd020b94d352685408da29b2/AndroidManifest.xml:8:2-41
MERGED from [:support-core-utils-25.3.1:] /home/fh/.gradle/caches/transforms-2/files-2.1/1be80f569069a684782221f5848f1fb1/AndroidManifest.xml:21:5-23:61
MERGED from [:support-core-utils-25.3.1:] /home/fh/.gradle/caches/transforms-2/files-2.1/1be80f569069a684782221f5848f1fb1/AndroidManifest.xml:21:5-23:61
MERGED from [:unityLibrary:unity-android-resources] /home/fh/Documents/UnityProjects/colorrush/Unity Files/ColoRush/Temp/gradleOut/unityLibrary/unity-android-resources/build/intermediates/library_manifest/release/AndroidManifest.xml:7:5-47
MERGED from [:unityLibrary:unity-android-resources] /home/fh/Documents/UnityProjects/colorrush/Unity Files/ColoRush/Temp/gradleOut/unityLibrary/unity-android-resources/build/intermediates/library_manifest/release/AndroidManifest.xml:7:5-47
INJECTED from /home/fh/Documents/UnityProjects/colorrush/Unity Files/ColoRush/Temp/gradleOut/launcher/src/main/AndroidManifest.xml
INJECTED from /home/fh/Documents/UnityProjects/colorrush/Unity Files/ColoRush/Temp/gradleOut/launcher/src/main/AndroidManifest.xml
	tools:overrideLibrary
		ADDED from [:support-core-utils-25.3.1:] /home/fh/.gradle/caches/transforms-2/files-2.1/1be80f569069a684782221f5848f1fb1/AndroidManifest.xml:23:9-58
	android:targetSdkVersion
		INJECTED from /home/fh/Documents/UnityProjects/colorrush/Unity Files/ColoRush/Temp/gradleOut/launcher/src/main/AndroidManifest.xml
		ADDED from /home/fh/Documents/UnityProjects/colorrush/Unity Files/ColoRush/Temp/gradleOut/launcher/src/main/AndroidManifest.xml
		INJECTED from /home/fh/Documents/UnityProjects/colorrush/Unity Files/ColoRush/Temp/gradleOut/launcher/src/main/AndroidManifest.xml
	android:minSdkVersion
		INJECTED from /home/fh/Documents/UnityProjects/colorrush/Unity Files/ColoRush/Temp/gradleOut/launcher/src/main/AndroidManifest.xml
		ADDED from /home/fh/Documents/UnityProjects/colorrush/Unity Files/ColoRush/Temp/gradleOut/launcher/src/main/AndroidManifest.xml
		MERGED from /home/fh/Documents/UnityProjects/colorrush/Unity Files/ColoRush/Temp/gradleOut/launcher/src/main/AndroidManifest.xml
		INJECTED from /home/fh/Documents/UnityProjects/colorrush/Unity Files/ColoRush/Temp/gradleOut/launcher/src/main/AndroidManifest.xml
uses-permission#android.permission.ACCESS_COARSE_LOCATION
ADDED from [:unityLibrary] /home/fh/Documents/UnityProjects/colorrush/Unity Files/ColoRush/Temp/gradleOut/unityLibrary/build/intermediates/library_manifest/release/AndroidManifest.xml:20:5-81
	android:name
		ADDED from [:unityLibrary] /home/fh/Documents/UnityProjects/colorrush/Unity Files/ColoRush/Temp/gradleOut/unityLibrary/build/intermediates/library_manifest/release/AndroidManifest.xml:20:22-78
uses-permission#android.permission.BLUETOOTH
ADDED from [:unityLibrary] /home/fh/Documents/UnityProjects/colorrush/Unity Files/ColoRush/Temp/gradleOut/unityLibrary/build/intermediates/library_manifest/release/AndroidManifest.xml:21:5-68
	android:name
		ADDED from [:unityLibrary] /home/fh/Documents/UnityProjects/colorrush/Unity Files/ColoRush/Temp/gradleOut/unityLibrary/build/intermediates/library_manifest/release/AndroidManifest.xml:21:22-65
uses-permission#android.permission.BLUETOOTH_ADMIN
ADDED from [:unityLibrary] /home/fh/Documents/UnityProjects/colorrush/Unity Files/ColoRush/Temp/gradleOut/unityLibrary/build/intermediates/library_manifest/release/AndroidManifest.xml:22:5-74
	android:name
		ADDED from [:unityLibrary] /home/fh/Documents/UnityProjects/colorrush/Unity Files/ColoRush/Temp/gradleOut/unityLibrary/build/intermediates/library_manifest/release/AndroidManifest.xml:22:22-71
uses-feature#0x00020000
ADDED from [:unityLibrary] /home/fh/Documents/UnityProjects/colorrush/Unity Files/ColoRush/Temp/gradleOut/unityLibrary/build/intermediates/library_manifest/release/AndroidManifest.xml:24:5-54
	android:glEsVersion
		ADDED from [:unityLibrary] /home/fh/Documents/UnityProjects/colorrush/Unity Files/ColoRush/Temp/gradleOut/unityLibrary/build/intermediates/library_manifest/release/AndroidManifest.xml:24:19-51
supports-gl-texture#GL_OES_compressed_ETC1_RGB8_texture
ADDED from [:unityLibrary] /home/fh/Documents/UnityProjects/colorrush/Unity Files/ColoRush/Temp/gradleOut/unityLibrary/build/intermediates/library_manifest/release/AndroidManifest.xml:26:5-79
	android:name
		ADDED from [:unityLibrary] /home/fh/Documents/UnityProjects/colorrush/Unity Files/ColoRush/Temp/gradleOut/unityLibrary/build/intermediates/library_manifest/release/AndroidManifest.xml:26:26-76
uses-permission#android.permission.INTERNET
ADDED from [:unityLibrary] /home/fh/Documents/UnityProjects/colorrush/Unity Files/ColoRush/Temp/gradleOut/unityLibrary/build/intermediates/library_manifest/release/AndroidManifest.xml:28:5-67
	android:name
		ADDED from [:unityLibrary] /home/fh/Documents/UnityProjects/colorrush/Unity Files/ColoRush/Temp/gradleOut/unityLibrary/build/intermediates/library_manifest/release/AndroidManifest.xml:28:22-64
uses-feature#android.hardware.touchscreen
ADDED from [:unityLibrary] /home/fh/Documents/UnityProjects/colorrush/Unity Files/ColoRush/Temp/gradleOut/unityLibrary/build/intermediates/library_manifest/release/AndroidManifest.xml:30:5-32:36
	android:required
		ADDED from [:unityLibrary] /home/fh/Documents/UnityProjects/colorrush/Unity Files/ColoRush/Temp/gradleOut/unityLibrary/build/intermediates/library_manifest/release/AndroidManifest.xml:32:9-33
	android:name
		ADDED from [:unityLibrary] /home/fh/Documents/UnityProjects/colorrush/Unity Files/ColoRush/Temp/gradleOut/unityLibrary/build/intermediates/library_manifest/release/AndroidManifest.xml:31:9-52
uses-feature#android.hardware.touchscreen.multitouch
ADDED from [:unityLibrary] /home/fh/Documents/UnityProjects/colorrush/Unity Files/ColoRush/Temp/gradleOut/unityLibrary/build/intermediates/library_manifest/release/AndroidManifest.xml:33:5-35:36
	android:required
		ADDED from [:unityLibrary] /home/fh/Documents/UnityProjects/colorrush/Unity Files/ColoRush/Temp/gradleOut/unityLibrary/build/intermediates/library_manifest/release/AndroidManifest.xml:35:9-33
	android:name
		ADDED from [:unityLibrary] /home/fh/Documents/UnityProjects/colorrush/Unity Files/ColoRush/Temp/gradleOut/unityLibrary/build/intermediates/library_manifest/release/AndroidManifest.xml:34:9-63
uses-feature#android.hardware.touchscreen.multitouch.distinct
ADDED from [:unityLibrary] /home/fh/Documents/UnityProjects/colorrush/Unity Files/ColoRush/Temp/gradleOut/unityLibrary/build/intermediates/library_manifest/release/AndroidManifest.xml:36:5-38:36
	android:required
		ADDED from [:unityLibrary] /home/fh/Documents/UnityProjects/colorrush/Unity Files/ColoRush/Temp/gradleOut/unityLibrary/build/intermediates/library_manifest/release/AndroidManifest.xml:38:9-33
	android:name
		ADDED from [:unityLibrary] /home/fh/Documents/UnityProjects/colorrush/Unity Files/ColoRush/Temp/gradleOut/unityLibrary/build/intermediates/library_manifest/release/AndroidManifest.xml:37:9-72
activity#com.unity3d.player.UnityPlayerActivity
ADDED from [:unityLibrary] /home/fh/Documents/UnityProjects/colorrush/Unity Files/ColoRush/Temp/gradleOut/unityLibrary/build/intermediates/library_manifest/release/AndroidManifest.xml:45:9-62:20
	android:screenOrientation
		ADDED from [:unityLibrary] /home/fh/Documents/UnityProjects/colorrush/Unity Files/ColoRush/Temp/gradleOut/unityLibrary/build/intermediates/library_manifest/release/AndroidManifest.xml:51:13-55
	android:label
		ADDED from [:unityLibrary] /home/fh/Documents/UnityProjects/colorrush/Unity Files/ColoRush/Temp/gradleOut/unityLibrary/build/intermediates/library_manifest/release/AndroidManifest.xml:49:13-45
	android:launchMode
		ADDED from [:unityLibrary] /home/fh/Documents/UnityProjects/colorrush/Unity Files/ColoRush/Temp/gradleOut/unityLibrary/build/intermediates/library_manifest/release/AndroidManifest.xml:50:13-44
	android:hardwareAccelerated
		ADDED from [:unityLibrary] /home/fh/Documents/UnityProjects/colorrush/Unity Files/ColoRush/Temp/gradleOut/unityLibrary/build/intermediates/library_manifest/release/AndroidManifest.xml:48:13-48
	android:configChanges
		ADDED from [:unityLibrary] /home/fh/Documents/UnityProjects/colorrush/Unity Files/ColoRush/Temp/gradleOut/unityLibrary/build/intermediates/library_manifest/release/AndroidManifest.xml:47:13-194
	android:name
		ADDED from [:unityLibrary] /home/fh/Documents/UnityProjects/colorrush/Unity Files/ColoRush/Temp/gradleOut/unityLibrary/build/intermediates/library_manifest/release/AndroidManifest.xml:46:13-66
intent-filter#action:name:android.intent.action.MAIN+category:name:android.intent.category.LAUNCHER+category:name:android.intent.category.LEANBACK_LAUNCHER
ADDED from [:unityLibrary] /home/fh/Documents/UnityProjects/colorrush/Unity Files/ColoRush/Temp/gradleOut/unityLibrary/build/intermediates/library_manifest/release/AndroidManifest.xml:52:13-57:29
action#android.intent.action.MAIN
ADDED from [:unityLibrary] /home/fh/Documents/UnityProjects/colorrush/Unity Files/ColoRush/Temp/gradleOut/unityLibrary/build/intermediates/library_manifest/release/AndroidManifest.xml:53:17-69
	android:name
		ADDED from [:unityLibrary] /home/fh/Documents/UnityProjects/colorrush/Unity Files/ColoRush/Temp/gradleOut/unityLibrary/build/intermediates/library_manifest/release/AndroidManifest.xml:53:25-66
category#android.intent.category.LAUNCHER
ADDED from [:unityLibrary] /home/fh/Documents/UnityProjects/colorrush/Unity Files/ColoRush/Temp/gradleOut/unityLibrary/build/intermediates/library_manifest/release/AndroidManifest.xml:55:17-77
	android:name
		ADDED from [:unityLibrary] /home/fh/Documents/UnityProjects/colorrush/Unity Files/ColoRush/Temp/gradleOut/unityLibrary/build/intermediates/library_manifest/release/AndroidManifest.xml:55:27-74
category#android.intent.category.LEANBACK_LAUNCHER
ADDED from [:unityLibrary] /home/fh/Documents/UnityProjects/colorrush/Unity Files/ColoRush/Temp/gradleOut/unityLibrary/build/intermediates/library_manifest/release/AndroidManifest.xml:56:17-86
	android:name
		ADDED from [:unityLibrary] /home/fh/Documents/UnityProjects/colorrush/Unity Files/ColoRush/Temp/gradleOut/unityLibrary/build/intermediates/library_manifest/release/AndroidManifest.xml:56:27-83
meta-data#unityplayer.UnityActivity
ADDED from [:unityLibrary] /home/fh/Documents/UnityProjects/colorrush/Unity Files/ColoRush/Temp/gradleOut/unityLibrary/build/intermediates/library_manifest/release/AndroidManifest.xml:59:13-61:40
	android:value
		ADDED from [:unityLibrary] /home/fh/Documents/UnityProjects/colorrush/Unity Files/ColoRush/Temp/gradleOut/unityLibrary/build/intermediates/library_manifest/release/AndroidManifest.xml:61:17-37
	android:name
		ADDED from [:unityLibrary] /home/fh/Documents/UnityProjects/colorrush/Unity Files/ColoRush/Temp/gradleOut/unityLibrary/build/intermediates/library_manifest/release/AndroidManifest.xml:60:17-57
activity#com.techtweaking.bluetoothcontroller.ForwardingActivity
ADDED from [:unityLibrary] /home/fh/Documents/UnityProjects/colorrush/Unity Files/ColoRush/Temp/gradleOut/unityLibrary/build/intermediates/library_manifest/release/AndroidManifest.xml:64:9-67:20
	android:background
		ADDED from [:unityLibrary] /home/fh/Documents/UnityProjects/colorrush/Unity Files/ColoRush/Temp/gradleOut/unityLibrary/build/intermediates/library_manifest/release/AndroidManifest.xml:66:13-43
	android:name
		ADDED from [:unityLibrary] /home/fh/Documents/UnityProjects/colorrush/Unity Files/ColoRush/Temp/gradleOut/unityLibrary/build/intermediates/library_manifest/release/AndroidManifest.xml:65:13-83
provider#android.support.v4.content.FileProvider
ADDED from [:unityLibrary] /home/fh/Documents/UnityProjects/colorrush/Unity Files/ColoRush/Temp/gradleOut/unityLibrary/build/intermediates/library_manifest/release/AndroidManifest.xml:69:9-77:20
	android:grantUriPermissions
		ADDED from [:unityLibrary] /home/fh/Documents/UnityProjects/colorrush/Unity Files/ColoRush/Temp/gradleOut/unityLibrary/build/intermediates/library_manifest/release/AndroidManifest.xml:73:13-47
	android:authorities
		ADDED from [:unityLibrary] /home/fh/Documents/UnityProjects/colorrush/Unity Files/ColoRush/Temp/gradleOut/unityLibrary/build/intermediates/library_manifest/release/AndroidManifest.xml:71:13-64
	android:exported
		ADDED from [:unityLibrary] /home/fh/Documents/UnityProjects/colorrush/Unity Files/ColoRush/Temp/gradleOut/unityLibrary/build/intermediates/library_manifest/release/AndroidManifest.xml:72:13-37
	android:name
		ADDED from [:unityLibrary] /home/fh/Documents/UnityProjects/colorrush/Unity Files/ColoRush/Temp/gradleOut/unityLibrary/build/intermediates/library_manifest/release/AndroidManifest.xml:70:13-67
meta-data#android.support.FILE_PROVIDER_PATHS
ADDED from [:unityLibrary] /home/fh/Documents/UnityProjects/colorrush/Unity Files/ColoRush/Temp/gradleOut/unityLibrary/build/intermediates/library_manifest/release/AndroidManifest.xml:74:13-76:58
	android:resource
		ADDED from [:unityLibrary] /home/fh/Documents/UnityProjects/colorrush/Unity Files/ColoRush/Temp/gradleOut/unityLibrary/build/intermediates/library_manifest/release/AndroidManifest.xml:76:17-55
	android:name
		ADDED from [:unityLibrary] /home/fh/Documents/UnityProjects/colorrush/Unity Files/ColoRush/Temp/gradleOut/unityLibrary/build/intermediates/library_manifest/release/AndroidManifest.xml:75:17-67
meta-data#unity.splash-mode
ADDED from [:unityLibrary] /home/fh/Documents/UnityProjects/colorrush/Unity Files/ColoRush/Temp/gradleOut/unityLibrary/build/intermediates/library_manifest/release/AndroidManifest.xml:79:9-81:33
	android:value
		ADDED from [:unityLibrary] /home/fh/Documents/UnityProjects/colorrush/Unity Files/ColoRush/Temp/gradleOut/unityLibrary/build/intermediates/library_manifest/release/AndroidManifest.xml:81:13-30
	android:name
		ADDED from [:unityLibrary] /home/fh/Documents/UnityProjects/colorrush/Unity Files/ColoRush/Temp/gradleOut/unityLibrary/build/intermediates/library_manifest/release/AndroidManifest.xml:80:13-45
meta-data#unity.splash-enable
ADDED from [:unityLibrary] /home/fh/Documents/UnityProjects/colorrush/Unity Files/ColoRush/Temp/gradleOut/unityLibrary/build/intermediates/library_manifest/release/AndroidManifest.xml:82:9-84:36
	android:value
		ADDED from [:unityLibrary] /home/fh/Documents/UnityProjects/colorrush/Unity Files/ColoRush/Temp/gradleOut/unityLibrary/build/intermediates/library_manifest/release/AndroidManifest.xml:84:13-33
	android:name
		ADDED from [:unityLibrary] /home/fh/Documents/UnityProjects/colorrush/Unity Files/ColoRush/Temp/gradleOut/unityLibrary/build/intermediates/library_manifest/release/AndroidManifest.xml:83:13-47
meta-data#unity.build-id
ADDED from [:unityLibrary] /home/fh/Documents/UnityProjects/colorrush/Unity Files/ColoRush/Temp/gradleOut/unityLibrary/build/intermediates/library_manifest/release/AndroidManifest.xml:85:9-87:68
	android:value
		ADDED from [:unityLibrary] /home/fh/Documents/UnityProjects/colorrush/Unity Files/ColoRush/Temp/gradleOut/unityLibrary/build/intermediates/library_manifest/release/AndroidManifest.xml:87:13-65
	android:name
		ADDED from [:unityLibrary] /home/fh/Documents/UnityProjects/colorrush/Unity Files/ColoRush/Temp/gradleOut/unityLibrary/build/intermediates/library_manifest/release/AndroidManifest.xml:86:13-42
uses-permission#android.permission.VIBRATE
ADDED from [:simple-android-notifications:] /home/fh/.gradle/caches/transforms-2/files-2.1/a7459096bd020b94d352685408da29b2/AndroidManifest.xml:7:2-63
	android:name
		ADDED from [:simple-android-notifications:] /home/fh/.gradle/caches/transforms-2/files-2.1/a7459096bd020b94d352685408da29b2/AndroidManifest.xml:7:19-60
receiver#com.hippogames.simpleandroidnotifications.Controller
ADDED from [:simple-android-notifications:] /home/fh/.gradle/caches/transforms-2/files-2.1/a7459096bd020b94d352685408da29b2/AndroidManifest.xml:10:3-83
	android:name
		ADDED from [:simple-android-notifications:] /home/fh/.gradle/caches/transforms-2/files-2.1/a7459096bd020b94d352685408da29b2/AndroidManifest.xml:10:13-80
meta-data#android.support.VERSION
ADDED from [:support-core-utils-25.3.1:] /home/fh/.gradle/caches/transforms-2/files-2.1/1be80f569069a684782221f5848f1fb1/AndroidManifest.xml:25:5-27:34
	android:value
		ADDED from [:support-core-utils-25.3.1:] /home/fh/.gradle/caches/transforms-2/files-2.1/1be80f569069a684782221f5848f1fb1/AndroidManifest.xml:27:9-31
	android:name
		ADDED from [:support-core-utils-25.3.1:] /home/fh/.gradle/caches/transforms-2/files-2.1/1be80f569069a684782221f5848f1fb1/AndroidManifest.xml:26:9-47
